^C:\VICTOR\WORK\AI\AUTOMN 2020\VS2019TEST\BFS_DFS\VS2017TEST\VS2017TEST\DEBUG\BULLET.OBJ|C:\VICTOR\WORK\AI\AUTOMN 2020\VS2019TEST\BFS_DFS\VS2017TEST\VS2017TEST\DEBUG\COMPARENODES.OBJ|C:\VICTOR\WORK\AI\AUTOMN 2020\VS2019TEST\BFS_DFS\VS2017TEST\VS2017TEST\DEBUG\GRENADE.OBJ|C:\VICTOR\WORK\AI\AUTOMN 2020\VS2019TEST\BFS_DFS\VS2017TEST\VS2017TEST\DEBUG\MAIN.OBJ|C:\VICTOR\WORK\AI\AUTOMN 2020\VS2019TEST\BFS_DFS\VS2017TEST\VS2017TEST\DEBUG\NODE.OBJ|C:\VICTOR\WORK\AI\AUTOMN 2020\VS2019TEST\BFS_DFS\VS2017TEST\VS2017TEST\DEBUG\ROOM.OBJ
C:\VICTOR\WORK\AI\AUTOMN 2020\VS2019TEST\BFS_DFS\VS2017TEST\VS2017TEST\FREEGLUT.LIB
C:\PROGRAM FILES (X86)\WINDOWS KITS\10\LIB\10.0.18362.0\UM\X86\OPENGL32.LIB
C:\PROGRAM FILES (X86)\WINDOWS KITS\10\LIB\10.0.18362.0\UM\X86\KERNEL32.LIB
C:\PROGRAM FILES (X86)\WINDOWS KITS\10\LIB\10.0.18362.0\UM\X86\USER32.LIB
C:\PROGRAM FILES (X86)\WINDOWS KITS\10\LIB\10.0.18362.0\UM\X86\GDI32.LIB
C:\PROGRAM FILES (X86)\WINDOWS KITS\10\LIB\10.0.18362.0\UM\X86\WINSPOOL.LIB
C:\PROGRAM FILES (X86)\WINDOWS KITS\10\LIB\10.0.18362.0\UM\X86\COMDLG32.LIB
C:\PROGRAM FILES (X86)\WINDOWS KITS\10\LIB\10.0.18362.0\UM\X86\ADVAPI32.LIB
C:\PROGRAM FILES (X86)\WINDOWS KITS\10\LIB\10.0.18362.0\UM\X86\SHELL32.LIB
C:\PROGRAM FILES (X86)\WINDOWS KITS\10\LIB\10.0.18362.0\UM\X86\OLE32.LIB
C:\PROGRAM FILES (X86)\WINDOWS KITS\10\LIB\10.0.18362.0\UM\X86\OLEAUT32.LIB
C:\PROGRAM FILES (X86)\WINDOWS KITS\10\LIB\10.0.18362.0\UM\X86\UUID.LIB
C:\PROGRAM FILES (X86)\WINDOWS KITS\10\LIB\10.0.18362.0\UM\X86\ODBC32.LIB
C:\PROGRAM FILES (X86)\WINDOWS KITS\10\LIB\10.0.18362.0\UM\X86\ODBCCP32.LIB
C:\VICTOR\WORK\AI\AUTOMN 2020\VS2019TEST\BFS_DFS\VS2017TEST\VS2017TEST\DEBUG\BULLET.OBJ
C:\VICTOR\WORK\AI\AUTOMN 2020\VS2019TEST\BFS_DFS\VS2017TEST\VS2017TEST\DEBUG\COMPARENODES.OBJ
C:\VICTOR\WORK\AI\AUTOMN 2020\VS2019TEST\BFS_DFS\VS2017TEST\VS2017TEST\DEBUG\GRENADE.OBJ
C:\VICTOR\WORK\AI\AUTOMN 2020\VS2019TEST\BFS_DFS\VS2017TEST\VS2017TEST\DEBUG\MAIN.OBJ
C:\VICTOR\WORK\AI\AUTOMN 2020\VS2019TEST\BFS_DFS\VS2017TEST\VS2017TEST\DEBUG\NODE.OBJ
C:\VICTOR\WORK\AI\AUTOMN 2020\VS2019TEST\BFS_DFS\VS2017TEST\VS2017TEST\DEBUG\ROOM.OBJ
C:\WINDOWS\SYSTEM32\TZRES.DLL
C:\WINDOWS\GLOBALIZATION\SORTING\SORTDEFAULT.NLS
C:\PROGRAM FILES (X86)\WINDOWS KITS\10\LIB\10.0.18362.0\UM\X86\GLU32.LIB
C:\PROGRAM FILES (X86)\WINDOWS KITS\10\LIB\10.0.18362.0\UM\X86\WINMM.LIB
C:\PROGRAM FILES (X86)\MICROSOFT VISUAL STUDIO\2019\COMMUNITY\VC\TOOLS\MSVC\14.28.29333\LIB\X86\MSVCRTD.LIB
C:\PROGRAM FILES (X86)\MICROSOFT VISUAL STUDIO\2019\COMMUNITY\VC\TOOLS\MSVC\14.28.29333\LIB\X86\OLDNAMES.LIB
C:\PROGRAM FILES (X86)\MICROSOFT VISUAL STUDIO\2019\COMMUNITY\VC\TOOLS\MSVC\14.28.29333\LIB\X86\MSVCPRTD.LIB
C:\PROGRAM FILES (X86)\MICROSOFT VISUAL STUDIO\2019\COMMUNITY\VC\TOOLS\MSVC\14.28.29333\LIB\X86\VCRUNTIMED.LIB
C:\PROGRAM FILES (X86)\WINDOWS KITS\10\LIB\10.0.18362.0\UCRT\X86\UCRTD.LIB
^C:\USERS\KQRH84\DESKTOP\BINA\BFS_DFS_SECURITY_MAP\VS2017TEST\VS2017TEST\DEBUG\BULLET.OBJ|C:\USERS\KQRH84\DESKTOP\BINA\BFS_DFS_SECURITY_MAP\VS2017TEST\VS2017TEST\DEBUG\COMPARENODES.OBJ|C:\USERS\KQRH84\DESKTOP\BINA\BFS_DFS_SECURITY_MAP\VS2017TEST\VS2017TEST\DEBUG\GRENADE.OBJ|C:\USERS\KQRH84\DESKTOP\BINA\BFS_DFS_SECURITY_MAP\VS2017TEST\VS2017TEST\DEBUG\MAIN.OBJ|C:\USERS\KQRH84\DESKTOP\BINA\BFS_DFS_SECURITY_MAP\VS2017TEST\VS2017TEST\DEBUG\NODE.OBJ|C:\USERS\KQRH84\DESKTOP\BINA\BFS_DFS_SECURITY_MAP\VS2017TEST\VS2017TEST\DEBUG\ROOM.OBJ
C:\USERS\KQRH84\DESKTOP\BINA\BFS_DFS_SECURITY_MAP\VS2017TEST\VS2017TEST\FREEGLUT.LIB
C:\PROGRAM FILES (X86)\WINDOWS KITS\10\LIB\10.0.18362.0\UM\X86\OPENGL32.LIB
C:\PROGRAM FILES (X86)\WINDOWS KITS\10\LIB\10.0.18362.0\UM\X86\KERNEL32.LIB
C:\PROGRAM FILES (X86)\WINDOWS KITS\10\LIB\10.0.18362.0\UM\X86\USER32.LIB
C:\PROGRAM FILES (X86)\WINDOWS KITS\10\LIB\10.0.18362.0\UM\X86\GDI32.LIB
C:\PROGRAM FILES (X86)\WINDOWS KITS\10\LIB\10.0.18362.0\UM\X86\WINSPOOL.LIB
C:\PROGRAM FILES (X86)\WINDOWS KITS\10\LIB\10.0.18362.0\UM\X86\COMDLG32.LIB
C:\PROGRAM FILES (X86)\WINDOWS KITS\10\LIB\10.0.18362.0\UM\X86\ADVAPI32.LIB
C:\PROGRAM FILES (X86)\WINDOWS KITS\10\LIB\10.0.18362.0\UM\X86\SHELL32.LIB
C:\PROGRAM FILES (X86)\WINDOWS KITS\10\LIB\10.0.18362.0\UM\X86\OLE32.LIB
C:\PROGRAM FILES (X86)\WINDOWS KITS\10\LIB\10.0.18362.0\UM\X86\OLEAUT32.LIB
C:\PROGRAM FILES (X86)\WINDOWS KITS\10\LIB\10.0.18362.0\UM\X86\UUID.LIB
C:\PROGRAM FILES (X86)\WINDOWS KITS\10\LIB\10.0.18362.0\UM\X86\ODBC32.LIB
C:\PROGRAM FILES (X86)\WINDOWS KITS\10\LIB\10.0.18362.0\UM\X86\ODBCCP32.LIB
C:\USERS\KQRH84\DESKTOP\BINA\BFS_DFS_SECURITY_MAP\VS2017TEST\VS2017TEST\DEBUG\BULLET.OBJ
C:\USERS\KQRH84\DESKTOP\BINA\BFS_DFS_SECURITY_MAP\VS2017TEST\VS2017TEST\DEBUG\COMPARENODES.OBJ
C:\USERS\KQRH84\DESKTOP\BINA\BFS_DFS_SECURITY_MAP\VS2017TEST\VS2017TEST\DEBUG\GRENADE.OBJ
C:\USERS\KQRH84\DESKTOP\BINA\BFS_DFS_SECURITY_MAP\VS2017TEST\VS2017TEST\DEBUG\MAIN.OBJ
C:\USERS\KQRH84\DESKTOP\BINA\BFS_DFS_SECURITY_MAP\VS2017TEST\VS2017TEST\DEBUG\NODE.OBJ
C:\USERS\KQRH84\DESKTOP\BINA\BFS_DFS_SECURITY_MAP\VS2017TEST\VS2017TEST\DEBUG\ROOM.OBJ
C:\WINDOWS\SYSTEM32\TZRES.DLL
C:\WINDOWS\GLOBALIZATION\SORTING\SORTDEFAULT.NLS
C:\PROGRAM FILES (X86)\WINDOWS KITS\10\LIB\10.0.18362.0\UM\X86\GLU32.LIB
C:\PROGRAM FILES (X86)\WINDOWS KITS\10\LIB\10.0.18362.0\UM\X86\WINMM.LIB
C:\PROGRAM FILES (X86)\MICROSOFT VISUAL STUDIO\2019\COMMUNITY\VC\TOOLS\MSVC\14.27.29110\LIB\X86\MSVCRTD.LIB
C:\PROGRAM FILES (X86)\MICROSOFT VISUAL STUDIO\2019\COMMUNITY\VC\TOOLS\MSVC\14.27.29110\LIB\X86\OLDNAMES.LIB
C:\PROGRAM FILES (X86)\MICROSOFT VISUAL STUDIO\2019\COMMUNITY\VC\TOOLS\MSVC\14.27.29110\LIB\X86\MSVCPRTD.LIB
C:\PROGRAM FILES (X86)\MICROSOFT VISUAL STUDIO\2019\COMMUNITY\VC\TOOLS\MSVC\14.27.29110\LIB\X86\VCRUNTIMED.LIB
C:\PROGRAM FILES (X86)\WINDOWS KITS\10\LIB\10.0.18362.0\UCRT\X86\UCRTD.LIB
C:\PROGRAM FILES (X86)\MICROSOFT VISUAL STUDIO\2019\COMMUNITY\VC\TOOLS\MSVC\14.27.29110\BIN\HOSTX86\X86\MSPDBSRV.EXE
^C:\USERS\KQRH84\DESKTOP\BINA\AI_FINAL\BFS_DFS_SECURITY_MAP\VS2017TEST\VS2017TEST\DEBUG\BULLET.OBJ|C:\USERS\KQRH84\DESKTOP\BINA\AI_FINAL\BFS_DFS_SECURITY_MAP\VS2017TEST\VS2017TEST\DEBUG\COMPARENODES.OBJ|C:\USERS\KQRH84\DESKTOP\BINA\AI_FINAL\BFS_DFS_SECURITY_MAP\VS2017TEST\VS2017TEST\DEBUG\GRENADE.OBJ|C:\USERS\KQRH84\DESKTOP\BINA\AI_FINAL\BFS_DFS_SECURITY_MAP\VS2017TEST\VS2017TEST\DEBUG\MAIN.OBJ|C:\USERS\KQRH84\DESKTOP\BINA\AI_FINAL\BFS_DFS_SECURITY_MAP\VS2017TEST\VS2017TEST\DEBUG\NODE.OBJ|C:\USERS\KQRH84\DESKTOP\BINA\AI_FINAL\BFS_DFS_SECURITY_MAP\VS2017TEST\VS2017TEST\DEBUG\ROOM.OBJ
C:\USERS\KQRH84\DESKTOP\BINA\AI_FINAL\BFS_DFS_SECURITY_MAP\VS2017TEST\VS2017TEST\FREEGLUT.LIB
C:\PROGRAM FILES (X86)\WINDOWS KITS\10\LIB\10.0.18362.0\UM\X86\OPENGL32.LIB
C:\PROGRAM FILES (X86)\WINDOWS KITS\10\LIB\10.0.18362.0\UM\X86\KERNEL32.LIB
C:\PROGRAM FILES (X86)\WINDOWS KITS\10\LIB\10.0.18362.0\UM\X86\USER32.LIB
C:\PROGRAM FILES (X86)\WINDOWS KITS\10\LIB\10.0.18362.0\UM\X86\GDI32.LIB
C:\PROGRAM FILES (X86)\WINDOWS KITS\10\LIB\10.0.18362.0\UM\X86\WINSPOOL.LIB
C:\PROGRAM FILES (X86)\WINDOWS KITS\10\LIB\10.0.18362.0\UM\X86\COMDLG32.LIB
C:\PROGRAM FILES (X86)\WINDOWS KITS\10\LIB\10.0.18362.0\UM\X86\ADVAPI32.LIB
C:\PROGRAM FILES (X86)\WINDOWS KITS\10\LIB\10.0.18362.0\UM\X86\SHELL32.LIB
C:\PROGRAM FILES (X86)\WINDOWS KITS\10\LIB\10.0.18362.0\UM\X86\OLE32.LIB
C:\PROGRAM FILES (X86)\WINDOWS KITS\10\LIB\10.0.18362.0\UM\X86\OLEAUT32.LIB
C:\PROGRAM FILES (X86)\WINDOWS KITS\10\LIB\10.0.18362.0\UM\X86\UUID.LIB
C:\PROGRAM FILES (X86)\WINDOWS KITS\10\LIB\10.0.18362.0\UM\X86\ODBC32.LIB
C:\PROGRAM FILES (X86)\WINDOWS KITS\10\LIB\10.0.18362.0\UM\X86\ODBCCP32.LIB
C:\USERS\KQRH84\DESKTOP\BINA\AI_FINAL\BFS_DFS_SECURITY_MAP\VS2017TEST\VS2017TEST\DEBUG\BULLET.OBJ
C:\USERS\KQRH84\DESKTOP\BINA\AI_FINAL\BFS_DFS_SECURITY_MAP\VS2017TEST\VS2017TEST\DEBUG\COMPARENODES.OBJ
C:\USERS\KQRH84\DESKTOP\BINA\AI_FINAL\BFS_DFS_SECURITY_MAP\VS2017TEST\VS2017TEST\DEBUG\GRENADE.OBJ
C:\USERS\KQRH84\DESKTOP\BINA\AI_FINAL\BFS_DFS_SECURITY_MAP\VS2017TEST\VS2017TEST\DEBUG\MAIN.OBJ
C:\USERS\KQRH84\DESKTOP\BINA\AI_FINAL\BFS_DFS_SECURITY_MAP\VS2017TEST\VS2017TEST\DEBUG\NODE.OBJ
C:\USERS\KQRH84\DESKTOP\BINA\AI_FINAL\BFS_DFS_SECURITY_MAP\VS2017TEST\VS2017TEST\DEBUG\ROOM.OBJ
C:\WINDOWS\SYSTEM32\TZRES.DLL
C:\WINDOWS\GLOBALIZATION\SORTING\SORTDEFAULT.NLS
C:\PROGRAM FILES (X86)\WINDOWS KITS\10\LIB\10.0.18362.0\UM\X86\GLU32.LIB
C:\PROGRAM FILES (X86)\WINDOWS KITS\10\LIB\10.0.18362.0\UM\X86\WINMM.LIB
C:\PROGRAM FILES (X86)\MICROSOFT VISUAL STUDIO\2019\COMMUNITY\VC\TOOLS\MSVC\14.27.29110\LIB\X86\MSVCRTD.LIB
C:\PROGRAM FILES (X86)\MICROSOFT VISUAL STUDIO\2019\COMMUNITY\VC\TOOLS\MSVC\14.27.29110\LIB\X86\OLDNAMES.LIB
C:\PROGRAM FILES (X86)\MICROSOFT VISUAL STUDIO\2019\COMMUNITY\VC\TOOLS\MSVC\14.27.29110\LIB\X86\MSVCPRTD.LIB
C:\PROGRAM FILES (X86)\MICROSOFT VISUAL STUDIO\2019\COMMUNITY\VC\TOOLS\MSVC\14.27.29110\LIB\X86\VCRUNTIMED.LIB
C:\PROGRAM FILES (X86)\WINDOWS KITS\10\LIB\10.0.18362.0\UCRT\X86\UCRTD.LIB
C:\PROGRAM FILES (X86)\MICROSOFT VISUAL STUDIO\2019\COMMUNITY\VC\TOOLS\MSVC\14.27.29110\BIN\HOSTX86\X86\MSPDBSRV.EXE
